<?xml version="1.0" encoding="UTF-8" standalone="no"?>
<!-- Created with Inkscape (http://www.inkscape.org/) -->

<svg
   xmlns:dc="http://purl.org/dc/elements/1.1/"
   xmlns:cc="http://creativecommons.org/ns#"
   xmlns:rdf="http://www.w3.org/1999/02/22-rdf-syntax-ns#"
   xmlns:svg="http://www.w3.org/2000/svg"
   xmlns="http://www.w3.org/2000/svg"
   xmlns:sodipodi="http://sodipodi.sourceforge.net/DTD/sodipodi-0.dtd"
   xmlns:inkscape="http://www.inkscape.org/namespaces/inkscape"
   width="320.44055mm"
   height="241.08047mm"
   viewBox="0 0 320.44055 241.08047"
   version="1.1"
   id="svg13599"
   inkscape:version="0.92.4 (5da689c313, 2019-01-14)"
   sodipodi:docname="perf_2.svg"
   inkscape:export-filename="C:\dev\workspaces\git\poc-neo4j\doc\articles\01_base_graph_kesako\perf_2.png"
   inkscape:export-xdpi="76.069206"
   inkscape:export-ydpi="76.069206">
  <defs
     id="defs13593">
    <marker
       inkscape:stockid="Arrow2Mend"
       orient="auto"
       refY="0"
       refX="0"
       id="marker15162"
       style="overflow:visible"
       inkscape:isstock="true">
      <path
         id="path15160"
         style="fill:#000000;fill-opacity:1;fill-rule:evenodd;stroke:#000000;stroke-width:0.625;stroke-linejoin:round;stroke-opacity:1"
         d="M 8.7185878,4.0337352 -2.2072895,0.01601326 8.7185884,-4.0017078 c -1.7454984,2.3720609 -1.7354408,5.6174519 -6e-7,8.035443 z"
         transform="scale(-0.6)"
         inkscape:connector-curvature="0" />
    </marker>
    <marker
       inkscape:isstock="true"
       style="overflow:visible"
       id="marker15060"
       refX="0"
       refY="0"
       orient="auto"
       inkscape:stockid="Arrow2Mend"
       inkscape:collect="always">
      <path
         transform="scale(-0.6)"
         d="M 8.7185878,4.0337352 -2.2072895,0.01601326 8.7185884,-4.0017078 c -1.7454984,2.3720609 -1.7354408,5.6174519 -6e-7,8.035443 z"
         style="fill:#000000;fill-opacity:1;fill-rule:evenodd;stroke:#000000;stroke-width:0.625;stroke-linejoin:round;stroke-opacity:1"
         id="path15058"
         inkscape:connector-curvature="0" />
    </marker>
    <marker
       inkscape:stockid="Arrow2Mend"
       orient="auto"
       refY="0"
       refX="0"
       id="marker14958"
       style="overflow:visible"
       inkscape:isstock="true"
       inkscape:collect="always">
      <path
         id="path14956"
         style="fill:#000000;fill-opacity:1;fill-rule:evenodd;stroke:#000000;stroke-width:0.625;stroke-linejoin:round;stroke-opacity:1"
         d="M 8.7185878,4.0337352 -2.2072895,0.01601326 8.7185884,-4.0017078 c -1.7454984,2.3720609 -1.7354408,5.6174519 -6e-7,8.035443 z"
         transform="scale(-0.6)"
         inkscape:connector-curvature="0" />
    </marker>
    <marker
       inkscape:isstock="true"
       style="overflow:visible"
       id="marker14580"
       refX="0"
       refY="0"
       orient="auto"
       inkscape:stockid="Arrow2Mend"
       inkscape:collect="always">
      <path
         transform="scale(-0.6)"
         d="M 8.7185878,4.0337352 -2.2072895,0.01601326 8.7185884,-4.0017078 c -1.7454984,2.3720609 -1.7354408,5.6174519 -6e-7,8.035443 z"
         style="fill:#000000;fill-opacity:1;fill-rule:evenodd;stroke:#000000;stroke-width:0.625;stroke-linejoin:round;stroke-opacity:1"
         id="path14578"
         inkscape:connector-curvature="0" />
    </marker>
    <marker
       inkscape:stockid="Arrow2Mend"
       orient="auto"
       refY="0"
       refX="0"
       id="Arrow2Mend"
       style="overflow:visible"
       inkscape:isstock="true"
       inkscape:collect="always">
      <path
         id="path5467"
         style="fill:#000000;fill-opacity:1;fill-rule:evenodd;stroke:#000000;stroke-width:0.625;stroke-linejoin:round;stroke-opacity:1"
         d="M 8.7185878,4.0337352 -2.2072895,0.01601326 8.7185884,-4.0017078 c -1.7454984,2.3720609 -1.7354408,5.6174519 -6e-7,8.035443 z"
         transform="scale(-0.6)"
         inkscape:connector-curvature="0" />
    </marker>
    <marker
       inkscape:stockid="Arrow2Send"
       orient="auto"
       refY="0"
       refX="0"
       id="Arrow2Send"
       style="overflow:visible"
       inkscape:isstock="true">
      <path
         id="path5473"
         style="fill:#000000;fill-opacity:1;fill-rule:evenodd;stroke:#000000;stroke-width:0.625;stroke-linejoin:round;stroke-opacity:1"
         d="M 8.7185878,4.0337352 -2.2072895,0.01601326 8.7185884,-4.0017078 c -1.7454984,2.3720609 -1.7354408,5.6174519 -6e-7,8.035443 z"
         transform="matrix(-0.3,0,0,-0.3,0.69,0)"
         inkscape:connector-curvature="0" />
    </marker>
  </defs>
  <sodipodi:namedview
     id="base"
     pagecolor="#ffffff"
     bordercolor="#666666"
     borderopacity="1.0"
     inkscape:pageopacity="0.0"
     inkscape:pageshadow="2"
     inkscape:zoom="0.49497475"
     inkscape:cx="539.20049"
     inkscape:cy="454.52543"
     inkscape:document-units="mm"
     inkscape:current-layer="layer1"
     showgrid="false"
     showguides="true"
     inkscape:guide-bbox="true"
     fit-margin-top="0"
     fit-margin-left="0"
     fit-margin-right="0"
     fit-margin-bottom="0"
     inkscape:window-width="1920"
     inkscape:window-height="1017"
     inkscape:window-x="-32000"
     inkscape:window-y="-30920"
     inkscape:window-maximized="0">
    <sodipodi:guide
       position="319.95805,240.59797"
       orientation="0,1"
       id="guide15478"
       inkscape:locked="false" />
    <sodipodi:guide
       position="209.77679,0.75595237"
       orientation="0,1"
       id="guide15480"
       inkscape:locked="false" />
    <sodipodi:guide
       position="0.75595238,135.69345"
       orientation="1,0"
       id="guide15482"
       inkscape:locked="false" />
    <sodipodi:guide
       position="320.52381,89.20238"
       orientation="1,0"
       id="guide15484"
       inkscape:locked="false" />
  </sodipodi:namedview>
  <metadata
     id="metadata13596">
    <rdf:RDF>
      <cc:Work
         rdf:about="">
        <dc:format>image/svg+xml</dc:format>
        <dc:type
           rdf:resource="http://purl.org/dc/dcmitype/StillImage" />
        <dc:title></dc:title>
      </cc:Work>
    </rdf:RDF>
  </metadata>
  <g
     inkscape:groupmode="layer"
     id="layer3"
     inkscape:label="back"
     transform="translate(1.1166193,-38.602419)">
    <rect
       style="opacity:0.98999999;fill:#ffffff;fill-opacity:1;stroke:#333333;stroke-width:0.96499997;stroke-miterlimit:4;stroke-dasharray:none;stroke-dashoffset:0;stroke-opacity:1"
       id="rect15457"
       width="356.51721"
       height="267.98343"
       x="-19.154953"
       y="25.150942"
       ry="3.535485" />
  </g>
  <g
     inkscape:label="Calque 1"
     inkscape:groupmode="layer"
     id="layer1"
     transform="translate(1.1166193,-38.602419)">
    <rect
       style="opacity:0.98999999;fill:#ffffff;fill-opacity:1;stroke:#333333;stroke-width:0.30000001;stroke-miterlimit:4;stroke-dasharray:none;stroke-dashoffset:0;stroke-opacity:1"
       id="rect14144"
       width="133.80357"
       height="212.76324"
       x="7.2797761"
       y="46.042488"
       ry="4.9506998" />
    <path
       style="opacity:0.98999999;fill:#2d2d2d;fill-opacity:1;stroke:#333333;stroke-width:0.30000001;stroke-miterlimit:4;stroke-dasharray:none;stroke-dashoffset:0;stroke-opacity:1"
       d="M 12.230476,46.042488 H 136.13265 c 2.74269,0 4.9507,2.208012 4.9507,4.9507 v 16.51958 H 7.2797761 v -16.51958 c 0,-2.742688 2.2080121,-4.9507 4.9506999,-4.9507 z"
       id="rect15475"
       inkscape:connector-curvature="0"
       sodipodi:nodetypes="sssccss" />
    <text
       xml:space="preserve"
       style="font-style:normal;font-weight:normal;font-size:10.58333302px;line-height:1.25;font-family:sans-serif;letter-spacing:0px;word-spacing:0px;fill:#ffffff;fill-opacity:1;stroke:none;stroke-width:0.26458332"
       x="12.571443"
       y="62.708485"
       id="text14148"><tspan
         sodipodi:role="line"
         id="tspan14146"
         x="12.571443"
         y="62.708485"
         style="fill:#ffffff;stroke-width:0.26458332">UserId</tspan></text>
    <text
       id="text14152"
       y="62.708485"
       x="81.259697"
       style="font-style:normal;font-weight:normal;font-size:10.58333302px;line-height:1.25;font-family:sans-serif;letter-spacing:0px;word-spacing:0px;fill:#ffffff;fill-opacity:1;stroke:none;stroke-width:0.26458332"
       xml:space="preserve"><tspan
         style="fill:#ffffff;stroke-width:0.26458332"
         y="62.708485"
         x="81.259697"
         id="tspan14150"
         sodipodi:role="line">RelationId</tspan></text>
    <flowRoot
       xml:space="preserve"
       id="flowRoot14154"
       style="font-style:normal;font-weight:normal;font-size:40px;line-height:1.25;font-family:sans-serif;letter-spacing:0px;word-spacing:0px;fill:#000000;fill-opacity:1;stroke:none"
       transform="matrix(0.26458333,0,0,0.26458333,-9.0034681,0)"><flowRegion
         id="flowRegion14156"><rect
           id="rect14158"
           width="149.50258"
           height="674.78192"
           x="133.34013"
           y="286.11337" /></flowRegion><flowPara
         id="flowPara14160">1</flowPara><flowPara
         id="flowPara14162">1</flowPara><flowPara
         id="flowPara14164">1</flowPara><flowPara
         id="flowPara14166">1</flowPara><flowPara
         id="flowPara14168">2</flowPara><flowPara
         id="flowPara14170">2</flowPara><flowPara
         id="flowPara14172">2</flowPara><flowPara
         id="flowPara14174">2</flowPara><flowPara
         id="flowPara14176">2</flowPara><flowPara
         id="flowPara14178">2</flowPara><flowPara
         id="flowPara14180">2</flowPara><flowPara
         id="flowPara14182">2</flowPara><flowPara
         id="flowPara14186" /></flowRoot>    <flowRoot
       transform="matrix(0.26458333,0,0,0.26458333,52.482384,0)"
       style="font-style:normal;font-weight:normal;font-size:40px;line-height:1.25;font-family:sans-serif;letter-spacing:0px;word-spacing:0px;fill:#000000;fill-opacity:1;stroke:none"
       id="flowRoot14220"
       xml:space="preserve"><flowRegion
         id="flowRegion14192"><rect
           y="286.11337"
           x="133.34013"
           height="674.78192"
           width="149.50258"
           id="rect14190" /></flowRegion><flowPara
         id="flowPara14194"
         style="text-align:center;text-anchor:middle">2</flowPara><flowPara
         id="flowPara14196"
         style="text-align:center;text-anchor:middle">3</flowPara><flowPara
         id="flowPara14198"
         style="text-align:center;text-anchor:middle">4</flowPara><flowPara
         id="flowPara14200"
         style="text-align:center;text-anchor:middle">5</flowPara><flowPara
         id="flowPara14202"
         style="text-align:center;text-anchor:middle">10</flowPara><flowPara
         id="flowPara14204"
         style="text-align:center;text-anchor:middle">11</flowPara><flowPara
         id="flowPara14206"
         style="text-align:center;text-anchor:middle">50</flowPara><flowPara
         id="flowPara14208"
         style="text-align:center;text-anchor:middle">55</flowPara><flowPara
         id="flowPara14210"
         style="text-align:center;text-anchor:middle">60</flowPara><flowPara
         id="flowPara14212"
         style="text-align:center;text-anchor:middle">70</flowPara><flowPara
         id="flowPara14214"
         style="text-align:center;text-anchor:middle">71</flowPara><flowPara
         id="flowPara14216"
         style="text-align:center;text-anchor:middle">100</flowPara><flowPara
         id="flowPara14218"
         style="text-align:center;text-anchor:middle" /></flowRoot>    <path
       inkscape:connector-curvature="0"
       id="path14224"
       d="M 74.120478,68.190379 V 258.87402"
       style="fill:none;stroke:#333333;stroke-width:0.30000001;stroke-linecap:butt;stroke-linejoin:miter;stroke-miterlimit:4;stroke-dasharray:0.60000003, 1.20000006;stroke-dashoffset:0;stroke-opacity:1" />
    <g
       id="g15419">
      <path
         inkscape:connector-curvature="0"
         id="path14226"
         d="m 156.57995,70.97024 v 188.7127"
         style="fill:none;stroke:#000000;stroke-width:0.86500001;stroke-linecap:butt;stroke-linejoin:miter;stroke-miterlimit:4;stroke-dasharray:none;stroke-opacity:1;marker-end:url(#Arrow2Mend)" />
      <text
         id="text14570"
         y="272.2446"
         x="153.63997"
         style="font-style:normal;font-weight:normal;font-size:10.58333302px;line-height:1.25;font-family:sans-serif;letter-spacing:0px;word-spacing:0px;fill:#000000;fill-opacity:1;stroke:none;stroke-width:0.26458332"
         xml:space="preserve"><tspan
           style="stroke-width:0.26458332"
           y="272.2446"
           x="153.63997"
           id="tspan14568"
           sodipodi:role="line">1</tspan></text>
    </g>
    <g
       id="g15431">
      <text
         xml:space="preserve"
         style="font-style:normal;font-weight:normal;font-size:10.58333302px;line-height:1.25;font-family:sans-serif;letter-spacing:0px;word-spacing:0px;fill:#000000;fill-opacity:1;stroke:none;stroke-width:0.26458332"
         x="184.35484"
         y="272.2446"
         id="text14576"><tspan
           sodipodi:role="line"
           id="tspan14574"
           x="184.35484"
           y="272.2446"
           style="stroke-width:0.26458332">2</tspan></text>
      <g
         transform="translate(-0.20144396)"
         id="g15364">
        <path
           inkscape:connector-curvature="0"
           id="path14572"
           d="m 180.09967,70.97024 v 188.7127"
           style="fill:none;stroke:#000000;stroke-width:0.86500001;stroke-linecap:butt;stroke-linejoin:miter;stroke-miterlimit:4;stroke-dasharray:none;stroke-opacity:1;marker-end:url(#marker14580)" />
        <path
           style="fill:none;stroke:#000000;stroke-width:0.86500001;stroke-linecap:butt;stroke-linejoin:miter;stroke-miterlimit:4;stroke-dasharray:none;stroke-opacity:1;marker-end:url(#marker14958)"
           d="m 185.21494,70.97024 v 188.7127"
           id="path14954"
           inkscape:connector-curvature="0" />
        <path
           inkscape:connector-curvature="0"
           id="path15056"
           d="m 190.33023,70.97024 v 188.7127"
           style="fill:none;stroke:#000000;stroke-width:0.86500001;stroke-linecap:butt;stroke-linejoin:miter;stroke-miterlimit:4;stroke-dasharray:none;stroke-opacity:1;marker-end:url(#marker15060)" />
        <path
           style="fill:none;stroke:#000000;stroke-width:0.86500001;stroke-linecap:butt;stroke-linejoin:miter;stroke-miterlimit:4;stroke-dasharray:none;stroke-opacity:1;marker-end:url(#marker15162)"
           d="m 195.44551,70.97024 v 188.7127"
           id="path15158"
           inkscape:connector-curvature="0" />
      </g>
      <path
         sodipodi:nodetypes="cccc"
         inkscape:connector-curvature="0"
         id="path15296"
         d="m 173.08108,75.16629 v -9.087162 h 28.99675 V 75.9681"
         style="fill:none;stroke:#000000;stroke-width:0.96499997;stroke-linecap:butt;stroke-linejoin:miter;stroke-miterlimit:4;stroke-dasharray:none;stroke-opacity:1" />
      <text
         id="text15374"
         y="64.45977"
         x="177.9108"
         style="font-style:normal;font-weight:normal;font-size:10.58333302px;line-height:1.25;font-family:sans-serif;letter-spacing:0px;word-spacing:0px;fill:#000000;fill-opacity:1;stroke:none;stroke-width:0.26458332"
         xml:space="preserve"><tspan
           style="stroke-width:0.26458332"
           y="64.45977"
           x="177.9108"
           id="tspan15372"
           sodipodi:role="line">x50</tspan></text>
    </g>
    <g
       id="g15443">
      <text
         id="text15378"
         y="272.2446"
         x="229.71458"
         style="font-style:normal;font-weight:normal;font-size:10.58333302px;line-height:1.25;font-family:sans-serif;letter-spacing:0px;word-spacing:0px;fill:#000000;fill-opacity:1;stroke:none;stroke-width:0.26458332"
         xml:space="preserve"><tspan
           style="stroke-width:0.26458332"
           y="272.2446"
           x="229.71458"
           id="tspan15376"
           sodipodi:role="line">3</tspan></text>
      <g
         transform="translate(45.279732)"
         id="g15388">
        <path
           style="fill:none;stroke:#000000;stroke-width:0.86500001;stroke-linecap:butt;stroke-linejoin:miter;stroke-miterlimit:4;stroke-dasharray:none;stroke-opacity:1;marker-end:url(#marker14580)"
           d="m 180.09967,70.97024 v 188.7127"
           id="path15380"
           inkscape:connector-curvature="0" />
        <path
           inkscape:connector-curvature="0"
           id="path15382"
           d="m 185.21494,70.97024 v 188.7127"
           style="fill:none;stroke:#000000;stroke-width:0.86500001;stroke-linecap:butt;stroke-linejoin:miter;stroke-miterlimit:4;stroke-dasharray:none;stroke-opacity:1;marker-end:url(#marker14958)" />
        <path
           style="fill:none;stroke:#000000;stroke-width:0.86500001;stroke-linecap:butt;stroke-linejoin:miter;stroke-miterlimit:4;stroke-dasharray:none;stroke-opacity:1;marker-end:url(#marker15060)"
           d="m 190.33023,70.97024 v 188.7127"
           id="path15384"
           inkscape:connector-curvature="0" />
        <path
           inkscape:connector-curvature="0"
           id="path15386"
           d="m 195.44551,70.97024 v 188.7127"
           style="fill:none;stroke:#000000;stroke-width:0.86500001;stroke-linecap:butt;stroke-linejoin:miter;stroke-miterlimit:4;stroke-dasharray:none;stroke-opacity:1;marker-end:url(#marker15162)" />
      </g>
      <path
         style="fill:none;stroke:#000000;stroke-width:0.96499997;stroke-linecap:butt;stroke-linejoin:miter;stroke-miterlimit:4;stroke-dasharray:none;stroke-opacity:1"
         d="m 218.56226,75.16629 v -9.087162 h 28.99675 V 75.9681"
         id="path15390"
         inkscape:connector-curvature="0"
         sodipodi:nodetypes="cccc" />
      <text
         xml:space="preserve"
         style="font-style:normal;font-weight:normal;font-size:10.58333302px;line-height:1.25;font-family:sans-serif;letter-spacing:0px;word-spacing:0px;fill:#000000;fill-opacity:1;stroke:none;stroke-width:0.26458332"
         x="216.65337"
         y="64.45977"
         id="text15394"><tspan
           sodipodi:role="line"
           id="tspan15392"
           x="216.65337"
           y="64.45977"
           style="stroke-width:0.26458332">x2500</tspan></text>
    </g>
    <g
       id="g15455">
      <text
         xml:space="preserve"
         style="font-style:normal;font-weight:normal;font-size:10.58333302px;line-height:1.25;font-family:sans-serif;letter-spacing:0px;word-spacing:0px;fill:#000000;fill-opacity:1;stroke:none;stroke-width:0.26458332"
         x="280.83801"
         y="272.2446"
         id="text15398"><tspan
           sodipodi:role="line"
           id="tspan15396"
           x="280.83801"
           y="272.2446"
           style="stroke-width:0.26458332">4</tspan></text>
      <g
         id="g15408"
         transform="translate(96.385082)">
        <path
           inkscape:connector-curvature="0"
           id="path15400"
           d="m 180.09967,70.97024 v 188.7127"
           style="fill:none;stroke:#000000;stroke-width:0.86500001;stroke-linecap:butt;stroke-linejoin:miter;stroke-miterlimit:4;stroke-dasharray:none;stroke-opacity:1;marker-end:url(#marker14580)" />
        <path
           style="fill:none;stroke:#000000;stroke-width:0.86500001;stroke-linecap:butt;stroke-linejoin:miter;stroke-miterlimit:4;stroke-dasharray:none;stroke-opacity:1;marker-end:url(#marker14958)"
           d="m 185.21494,70.97024 v 188.7127"
           id="path15402"
           inkscape:connector-curvature="0" />
        <path
           inkscape:connector-curvature="0"
           id="path15404"
           d="m 190.33023,70.97024 v 188.7127"
           style="fill:none;stroke:#000000;stroke-width:0.86500001;stroke-linecap:butt;stroke-linejoin:miter;stroke-miterlimit:4;stroke-dasharray:none;stroke-opacity:1;marker-end:url(#marker15060)" />
        <path
           style="fill:none;stroke:#000000;stroke-width:0.86500001;stroke-linecap:butt;stroke-linejoin:miter;stroke-miterlimit:4;stroke-dasharray:none;stroke-opacity:1;marker-end:url(#marker15162)"
           d="m 195.44551,70.97024 v 188.7127"
           id="path15406"
           inkscape:connector-curvature="0" />
      </g>
      <path
         sodipodi:nodetypes="cccc"
         inkscape:connector-curvature="0"
         id="path15410"
         d="m 259.2441,75.16629 v -9.087162 h 49.84377 V 75.9681"
         style="fill:none;stroke:#000000;stroke-width:0.96499997;stroke-linecap:butt;stroke-linejoin:miter;stroke-miterlimit:4;stroke-dasharray:none;stroke-opacity:1" />
      <text
         id="text15414"
         y="64.45977"
         x="261.02011"
         style="font-style:normal;font-weight:normal;font-size:10.58333302px;line-height:1.25;font-family:sans-serif;letter-spacing:0px;word-spacing:0px;fill:#000000;fill-opacity:1;stroke:none;stroke-width:0.26458332"
         xml:space="preserve"><tspan
           style="stroke-width:0.26458332"
           y="64.45977"
           x="261.02011"
           id="tspan15412"
           sodipodi:role="line">x125000</tspan></text>
    </g>
  </g>
</svg>
